{
    "apps": [{
        "name": "ohif-viewer",
        "script": "main.js",
        "watch": true,
        "merge_logs": true,
        "cwd": "/app",
        "env": {
            "METEOR_SETTINGS": {
                "servers": {
                    "dicomWeb": [{
                        "name": "Orthanc",
                        "wadoUriRoot": "http://radiology.librehealth.io:8042/wado",
                        "qidoRoot": "http://radiology.librehealth.io:8042/dicom-web",
                        "wadoRoot": "http://radiology.librehealth.io:8042/dicom-web",
                        "qidoSupportsIncludeField": false,
                        "imageRendering": "wadouri",
                        "thumbnailRendering": "wadors",
                        "requestOptions": {
                            "auth": "orthanc:orthanc",
                            "logRequests": true,
                            "logResponses": false,
                            "logTiming": true
                        }
                    }]
                },
                "defaultServiceType": "dicomWeb",
                "dropCollections": true,
                "public": {
                    "verifyEmail": false,
                    "ui": {
                        "studyListFunctionsEnabled": true,
                        "leftSidebarOpen": false,
                        "displaySetNavigationLoopOverSeries": false,
                        "displaySetNavigationMultipleViewports": true,
                        "autoPositionMeasurementsTextCallOuts": "TRLB"
                    }
                },
                "proxy": {
                    "enabled": true
                }

            }
        }
    }]
}
